﻿Log file open, 09/18/17 18:29:08
LogWindows: LoadLibraryWithSearchPaths failed for file aqProf.dll. GetLastError=0
LogWindows: LoadLibraryWithSearchPaths failed for file VSPerf140.dll. GetLastError=0
LogWindows: LoadLibraryWithSearchPaths failed for file VtuneApi.dll. GetLastError=0
LogWindows: LoadLibraryWithSearchPaths failed for file VtuneApi32e.dll. GetLastError=0
LogInit: Display: Running engine for game: EndlessRunner
LogPlatformFile: Not using cached read wrapper
LogInit: Display: RandInit(374088016) SRandInit(374088016).
LogTaskGraph: Started task graph with 5 named threads and 14 total threads with 3 sets of task threads.
LogStats: Stats thread started at 0.186452
LogD3D11RHI: Aftermath initialized
LogPluginManager: Mounting plugin Paper2D
LogPluginManager: Mounting plugin LightPropagationVolume
LogPluginManager: Mounting plugin CodeLiteSourceCodeAccess
LogPluginManager: Mounting plugin GitSourceControl
LogPluginManager: Mounting plugin KDevelopSourceCodeAccess
LogPluginManager: Mounting plugin NullSourceCodeAccess
LogPluginManager: Mounting plugin PerforceSourceControl
LogPluginManager: Mounting plugin SubversionSourceControl
LogPluginManager: Mounting plugin UObjectPlugin
LogPluginManager: Mounting plugin VisualStudioSourceCodeAccess
LogPluginManager: Mounting plugin XCodeSourceCodeAccess
LogPluginManager: Mounting plugin AssetManagerEditor
LogPluginManager: Mounting plugin AudioCapture
LogPluginManager: Mounting plugin FacialAnimation
LogPluginManager: Mounting plugin GameplayTagsEditor
LogPluginManager: Mounting plugin MobileLauncherProfileWizard
LogPluginManager: Mounting plugin PluginBrowser
LogPluginManager: Mounting plugin SpeedTreeImporter
LogPluginManager: Mounting plugin AlembicImporter
LogPluginManager: Mounting plugin CharacterAI
LogPluginManager: Mounting plugin HTML5Networking
LogPluginManager: Mounting plugin AndroidMedia
LogPluginManager: Mounting plugin AvfMedia
LogPluginManager: Mounting plugin MediaPlayerEditor
LogPluginManager: Mounting plugin WmfMedia
LogPluginManager: Mounting plugin TcpMessaging
LogPluginManager: Mounting plugin UdpMessaging
LogPluginManager: Mounting plugin LevelSequenceEditor
LogPluginManager: Mounting plugin MatineeToLevelSequence
LogPluginManager: Mounting plugin OnlineSubsystemGooglePlay
LogPluginManager: Mounting plugin OnlineSubsystemIOS
LogPluginManager: Mounting plugin OnlineSubsystem
LogPluginManager: Mounting plugin OnlineSubsystemNull
LogPluginManager: Mounting plugin OnlineSubsystemUtils
LogPluginManager: Mounting plugin AndroidDeviceProfileSelector
LogPluginManager: Mounting plugin AndroidMoviePlayer
LogPluginManager: Mounting plugin AndroidPermission
LogPluginManager: Mounting plugin AppleMoviePlayer
LogPluginManager: Mounting plugin ArchVisCharacter
LogPluginManager: Mounting plugin CableComponent
LogPluginManager: Mounting plugin CustomMeshComponent
LogPluginManager: Mounting plugin ExampleDeviceProfileSelector
LogPluginManager: Mounting plugin GoogleCloudMessaging
LogPluginManager: Mounting plugin ImmediatePhysics
LogPluginManager: Mounting plugin IOSDeviceProfileSelector
LogPluginManager: Mounting plugin LinuxDeviceProfileSelector
LogPluginManager: Mounting plugin LocationServicesBPLibrary
LogPluginManager: Mounting plugin MobilePatchingUtils
LogPluginManager: Mounting plugin OculusVR
LogPluginManager: Mounting plugin PhysXVehicles
LogPluginManager: Mounting plugin ProceduralMeshComponent
LogPluginManager: Mounting plugin RuntimePhysXCooking
LogPluginManager: Mounting plugin SteamVR
LogPluginManager: Mounting plugin WindowsMoviePlayer
LogInit: Using libcurl 7.47.1
LogInit:  - built for x86_64-pc-win32
LogInit:  - supports SSL with OpenSSL/1.0.2g
LogInit:  - supports HTTP deflate (compression) using libz 1.2.8
LogInit:  - other features:
LogInit:      CURL_VERSION_SSL
LogInit:      CURL_VERSION_LIBZ
LogInit:      CURL_VERSION_IPV6
LogInit:      CURL_VERSION_ASYNCHDNS
LogInit:      CURL_VERSION_LARGEFILE
LogInit:      CURL_VERSION_IDN
LogInit:  CurlRequestOptions (configurable via config and command line):
LogInit:  - bVerifyPeer = false  - Libcurl will NOT verify peer certificate
LogInit:  - bUseHttpProxy = false  - Libcurl will NOT use HTTP proxy
LogInit:  - bDontReuseConnections = false  - Libcurl will reuse connections
LogInit:  - CertBundlePath = nullptr  - Libcurl will use whatever was configured at build time.
LogInit: Build: ++UE4+Release-4.17-CL-3586342
LogInit: Engine Version: 4.17.1-3586342+++UE4+Release-4.17
LogInit: Compatible Engine Version: 4.17.0-3573198+++UE4+Release-4.17
LogInit: Net CL: 3573198
LogDevObjectVersion: Number of dev versions registered: 16
LogDevObjectVersion:   Dev-Blueprints (B0D832E4-1F89-4F0D-ACCF-7EB736FD4AA2): 10
LogDevObjectVersion:   Dev-Build (E1C64328-A22C-4D53-A36C-8E866417BD8C): 0
LogDevObjectVersion:   Dev-Core (375EC13C-06E4-48FB-B500-84F0262A717E): 2
LogDevObjectVersion:   Dev-Editor (E4B068ED-F494-42E9-A231-DA0B2E46BB41): 20
LogDevObjectVersion:   Dev-Framework (CFFC743F-43B0-4480-9391-14DF171D2073): 28
LogDevObjectVersion:   Dev-Mobile (B02B49B5-BB20-44E9-A304-32B752E40360): 0
LogDevObjectVersion:   Dev-Networking (A4E4105C-59A1-49B5-A7C5-40C4547EDFEE): 0
LogDevObjectVersion:   Dev-Online (39C831C9-5AE6-47DC-9A44-9C173E1C8E7C): 0
LogDevObjectVersion:   Dev-Physics (78F01B33-EBEA-4F98-B9B4-84EACCB95AA2): 0
LogDevObjectVersion:   Dev-Platform (6631380F-2D4D-43E0-8009-CF276956A95A): 0
LogDevObjectVersion:   Dev-Rendering (12F88B9F-8875-4AFC-A67C-D90C383ABD29): 19
LogDevObjectVersion:   Dev-Sequencer (7B5AE74C-D270-4C10-A958-57980B212A5A): 4
LogDevObjectVersion:   Dev-VR (D7296918-1DD6-4BDD-9DE2-64A83CC13884): 0
LogDevObjectVersion:   Dev-LoadTimes (C2A15278-BFE7-4AFE-6C17-90FF531DF755): 1
LogDevObjectVersion:   Private-Geometry (6EACA3D4-40EC-4CC1-B786-8BED09428FC5): 1
LogDevObjectVersion:   Dev-AnimPhys (29E575DD-E0A3-4627-9D10-D276232CDCEA): 7
LogInit: Compiled (64-bit): Aug 15 2017 02:05:26
LogInit: Compiled with Visual C++: 19.00.24215.01
LogInit: Build Configuration: Development
LogInit: Branch Name: ++UE4+Release-4.17
LogInit: Command line: -EpicPortal 
LogInit: Base directory: C:/Program Files/Epic Games/UE_4.17/Engine/Binaries/Win64/
LogInit: Installed Engine Build: 1
LogInit: Presizing for max 8388607 objects, including 0 objects not considered by GC, pre-allocating 0 bytes for permanent pool.
LogInit: Object subsystem initialized
[2017.09.18-22.29.09:596][  0]LogInit: Selected Device Profile: [Windows]
[2017.09.18-22.29.09:596][  0]LogInit: Applying CVar settings loaded from the selected device profile: [Windows]
[2017.09.18-22.29.09:651][  0]LogInit: Computer: MSI
[2017.09.18-22.29.09:651][  0]LogInit: User: MeganNadolski
[2017.09.18-22.29.09:651][  0]LogInit: CPU Page size=4096, Cores=4
[2017.09.18-22.29.09:651][  0]LogInit: High frequency timer resolution =2.531251 MHz
[2017.09.18-22.29.09:651][  0]LogMemory: Memory total: Physical=11.9GB (12GB approx)
[2017.09.18-22.29.09:651][  0]LogMemory: Platform Memory Stats for Windows
[2017.09.18-22.29.09:651][  0]LogMemory: Process Physical Memory: 277.58 MB used, 277.58 MB peak
[2017.09.18-22.29.09:651][  0]LogMemory: Process Virtual Memory: 274.18 MB used, 274.18 MB peak
[2017.09.18-22.29.09:651][  0]LogMemory: Physical Memory: 6235.35 MB used,  5901.70 MB free, 12137.05 MB total
[2017.09.18-22.29.09:651][  0]LogMemory: Virtual Memory: 668.77 MB used,  5901.70 MB free, 134217728.00 MB total
[2017.09.18-22.29.09:867][  0]LogInit: Using OS detected language (en-US).
[2017.09.18-22.29.09:867][  0]LogInit: Using OS detected locale (en-US).
[2017.09.18-22.29.09:870][  0]LogTextLocalizationManager: No specific localization for 'en-US' exists, so the 'en' localization will be used.
[2017.09.18-22.29.10:713][  0]LogD3D11RHI: D3D11 adapters:
[2017.09.18-22.29.10:770][  0]LogD3D11RHI:    0. 'NVIDIA GeForce GTX 970M' (Feature Level 11_0)
[2017.09.18-22.29.10:770][  0]LogD3D11RHI:       3040/0/6068 MB DedicatedVideo/DedicatedSystem/SharedSystem, Outputs:1, VendorId:0x10de
[2017.09.18-22.29.10:779][  0]LogD3D11RHI:    1. 'Intel(R) HD Graphics 530' (Feature Level 11_0)
[2017.09.18-22.29.10:779][  0]LogD3D11RHI:       128/0/6068 MB DedicatedVideo/DedicatedSystem/SharedSystem, Outputs:0, VendorId:0x8086
[2017.09.18-22.29.10:780][  0]LogD3D11RHI:    2. 'Microsoft Basic Render Driver' (Feature Level 11_0)
[2017.09.18-22.29.10:780][  0]LogD3D11RHI:       0/0/6068 MB DedicatedVideo/DedicatedSystem/SharedSystem, Outputs:0, VendorId:0x1414
[2017.09.18-22.29.10:780][  0]LogD3D11RHI: Chosen D3D11 Adapter: 0
[2017.09.18-22.29.10:788][  0]LogD3D11RHI: Creating new Direct3DDevice
[2017.09.18-22.29.10:788][  0]LogD3D11RHI:     GPU DeviceId: 0x13d8 (for the marketing name, search the web for "GPU Device Id")
[2017.09.18-22.29.10:788][  0]LogWindows: EnumDisplayDevices:
[2017.09.18-22.29.10:788][  0]LogWindows:    0. 'Intel(R) HD Graphics 530' (P:1 D:1)
[2017.09.18-22.29.10:788][  0]LogWindows:    1. 'Intel(R) HD Graphics 530' (P:0 D:0)
[2017.09.18-22.29.10:789][  0]LogWindows:    2. 'Intel(R) HD Graphics 530' (P:0 D:0)
[2017.09.18-22.29.10:789][  0]LogWindows: DebugString: PrimaryIsNotTheChoosenAdapter PrimaryIsNotTheChoosenAdapter PrimaryIsNotTheChoosenAdapter FoundDriverCount:0 
[2017.09.18-22.29.10:789][  0]LogD3D11RHI:     Adapter Name: NVIDIA GeForce GTX 970M
[2017.09.18-22.29.10:789][  0]LogD3D11RHI:   Driver Version: Unknown (internal:Unknown, unified:Unknown)
[2017.09.18-22.29.10:789][  0]LogD3D11RHI:      Driver Date: Unknown
[2017.09.18-22.29.10:789][  0]LogRHI: Texture pool is 1361 MB (70% of 1945 MB)
[2017.09.18-22.29.10:831][  0]LogD3D11RHI: Async texture creation enabled
[2017.09.18-22.29.10:845][  0]LogD3D11RHI: GPU Timing Frequency: 1000.000000 (Debug: 2 1)
[2017.09.18-22.29.10:846][  0]LogShaderCompilers: Guid format shader working directory is -33 characters bigger than the processId version (../../../../../../Users/Megan Nadolski/Documents/runner/EndlessRunner 4.17 - 2 4.17 - 2/Intermediate/Shaders/WorkingDirectory/13576/).
[2017.09.18-22.29.10:846][  0]LogShaderCompilers: Cleaned the shader compiler working directory 'C:/Users/Megan Nadolski/AppData/Local/Temp/UnrealShaderWorkingDir/B6EB31DF4069BC210D33FAAE0E3C2A5A/'.
[2017.09.18-22.29.10:846][  0]LogShaderCompilers: Display: Using Local Shader Compiler.
[2017.09.18-22.29.11:955][  0]LogTemp: Display: Loaded TP AllDesktopTargetPlatform
[2017.09.18-22.29.12:023][  0]LogTemp: Display: Loaded TP MacClientTargetPlatform
[2017.09.18-22.29.12:095][  0]LogTemp: Display: Loaded TP MacNoEditorTargetPlatform
[2017.09.18-22.29.12:162][  0]LogTemp: Display: Loaded TP MacServerTargetPlatform
[2017.09.18-22.29.12:228][  0]LogTemp: Display: Loaded TP MacTargetPlatform
[2017.09.18-22.29.12:293][  0]LogTemp: Display: Loaded TP WindowsClientTargetPlatform
[2017.09.18-22.29.12:359][  0]LogTemp: Display: Loaded TP WindowsNoEditorTargetPlatform
[2017.09.18-22.29.12:425][  0]LogTemp: Display: Loaded TP WindowsServerTargetPlatform
[2017.09.18-22.29.12:484][  0]LogTemp: Display: Loaded TP WindowsTargetPlatform
[2017.09.18-22.29.12:554][  0]LogTemp: Display: Loaded TP AndroidTargetPlatform
[2017.09.18-22.29.12:626][  0]LogTemp: Display: Loaded TP Android_ASTCTargetPlatform
[2017.09.18-22.29.12:690][  0]LogTemp: Display: Loaded TP Android_ATCTargetPlatform
[2017.09.18-22.29.13:233][  0]LogTemp: Display: Loaded TP Android_DXTTargetPlatform
[2017.09.18-22.29.13:305][  0]LogTemp: Display: Loaded TP Android_ETC1TargetPlatform
[2017.09.18-22.29.13:390][  0]LogTemp: Display: Loaded TP Android_ETC2TargetPlatform
[2017.09.18-22.29.13:543][  0]LogTemp: Display: Loaded TP Android_MultiTargetPlatform
[2017.09.18-22.29.13:543][  0]LogTemp: Display: Loaded TP Android_PVRTCTargetPlatform
[2017.09.18-22.29.13:625][  0]LogTemp: Display: Loaded TP HTML5TargetPlatform
[2017.09.18-22.29.13:745][  0]LogTemp: Display: Loaded TP IOSTargetPlatform
[2017.09.18-22.29.13:784][  0]LogTemp: Display: Loaded TP TVOSTargetPlatform
[2017.09.18-22.29.13:849][  0]LogTemp: Display: Loaded TP LinuxClientTargetPlatform
[2017.09.18-22.29.13:913][  0]LogTemp: Display: Loaded TP LinuxNoEditorTargetPlatform
[2017.09.18-22.29.13:979][  0]LogTemp: Display: Loaded TP LinuxServerTargetPlatform
[2017.09.18-22.29.14:044][  0]LogTemp: Display: Loaded TP LinuxTargetPlatform
[2017.09.18-22.29.14:044][  0]LogTargetPlatformManager: Display: Building Assets For Windows
[2017.09.18-22.29.14:702][  0]LogDerivedDataCache: Display: Max Cache Size: 512 MB
[2017.09.18-22.29.14:818][  0]LogDerivedDataCache: Loaded boot cache 0.11s 93MB C:/Users/Megan Nadolski/AppData/Local/UnrealEngine/4.17/DerivedDataCache/Boot.ddc.
[2017.09.18-22.29.14:818][  0]LogDerivedDataCache: Display: Loaded Boot cache: C:/Users/Megan Nadolski/AppData/Local/UnrealEngine/4.17/DerivedDataCache/Boot.ddc
[2017.09.18-22.29.14:818][  0]LogDerivedDataCache: FDerivedDataBackendGraph:  Pak pak cache file ../../../../../../Users/Megan Nadolski/Documents/runner/EndlessRunner 4.17 - 2 4.17 - 2/DerivedDataCache/DDC.ddp not found, will not use a pak cache.
[2017.09.18-22.29.14:818][  0]LogDerivedDataCache: Unable to find inner node Pak for hierarchical cache Hierarchy.
[2017.09.18-22.29.14:818][  0]LogDerivedDataCache: FDerivedDataBackendGraph:  CompressedPak pak cache file ../../../../../../Users/Megan Nadolski/Documents/runner/EndlessRunner 4.17 - 2 4.17 - 2/DerivedDataCache/Compressed.ddp not found, will not use a pak cache.
[2017.09.18-22.29.14:818][  0]LogDerivedDataCache: Unable to find inner node CompressedPak for hierarchical cache Hierarchy.
[2017.09.18-22.29.14:839][  0]LogDerivedDataCache: Display: Pak cache opened for reading ../../../Engine/DerivedDataCache/Compressed.ddp.
[2017.09.18-22.29.14:851][  0]LogDerivedDataCache: Using Local data cache path C:/Users/Megan Nadolski/AppData/Local/UnrealEngine/Common/DerivedDataCache: Writable
[2017.09.18-22.29.14:863][  0]LogMaterial: Verifying Global Shaders for PCD3D_SM5
[2017.09.18-22.29.14:863][  0]LogSlate: Using Freetype 2.6.0
[2017.09.18-22.29.14:864][  0]LogSlate: SlateFontCache - WITH_FREETYPE: 1, WITH_HARFBUZZ: 1
[2017.09.18-22.29.14:864][  0]LogSlate: SlateFontCache - WITH_FREETYPE: 1, WITH_HARFBUZZ: 1
[2017.09.18-22.29.15:203][  0]LogAssetRegistry: FAssetRegistry took 0.0277 seconds to start up
[2017.09.18-22.29.15:351][  0]LogInit: Selected Device Profile: [Windows]
[2017.09.18-22.29.15:821][  0]LogSimplygon: Simplygon DLL not present - disabling.
[2017.09.18-22.29.15:875][  0]LogMeshReduction: Using SimplygonSwarm for distributed automatic mesh merging
[2017.09.18-22.29.15:875][  0]LogMeshReduction: Using QuadricMeshReduction for automatic static mesh reduction
[2017.09.18-22.29.15:875][  0]LogMeshReduction: No automatic skeletal mesh reduction module available
[2017.09.18-22.29.15:875][  0]LogMeshReduction: No automatic mesh merging module available
[2017.09.18-22.29.15:875][  0]LogMeshMerging: No automatic mesh merging module available
[2017.09.18-22.29.15:877][  0]LogContentStreaming: Texture pool size is 0.00 MB
[2017.09.18-22.29.16:422][  0]LogNetVersion: EndlessRunner , NetCL: 3573198, EngineNetVer: 2, GameNetVer: 0 (Checksum: 4257649686)
[2017.09.18-22.29.16:704][  0]LogPackageLocalizationCache: Processed 5 localized package path(s) for 2 prioritized culture(s) in 0.057459 seconds
[2017.09.18-22.29.16:711][  0]LogUObjectArray: 35825 objects as part of root set at end of initial load.
[2017.09.18-22.29.16:711][  0]LogUObjectAllocator: 7529104 out of 0 bytes used by permanent object pool.
[2017.09.18-22.29.16:711][  0]LogUObjectArray: CloseDisregardForGC: 0/0 objects in disregard for GC pool
[2017.09.18-22.29.16:792][  0]LogInit: WinSock: version 1.1 (2.2), MaxSocks=32767, MaxUdp=65467
[2017.09.18-22.29.20:358][  0]LogTcpMessaging: Initializing TcpMessaging bridge
[2017.09.18-22.29.20:413][  0]LogUdpMessaging: Initializing bridge on interface 0.0.0.0:0 to multicast group 230.0.0.1:6666.
[2017.09.18-22.29.21:244][  0]LogMaterial: Uniform references updated for custom material expression Custom.
[2017.09.18-22.29.21:770][  0]SourceControl: Source control is disabled
[2017.09.18-22.29.21:771][  0]SourceControl: Source control is disabled
[2017.09.18-22.29.21:833][  0]SourceControl: Source control is disabled
[2017.09.18-22.29.21:896][  0]SourceControl: Source control is disabled
[2017.09.18-22.29.22:772][  0]LogAndroidPermission: UAndroidPermissionCallbackProxy::GetInstance
[2017.09.18-22.29.23:136][  0]LogOcInput: OculusInput pre-init called
[2017.09.18-22.29.23:499][  0]LogEngine: Initializing Engine...
[2017.09.18-22.29.23:501][  0]LogHMD: Failed to initialize OpenVR with code 110
[2017.09.18-22.29.23:796][  0]LogStats: UGameplayTagsManager::ConstructGameplayTagTree: Construct from data asset -  0.000 s
[2017.09.18-22.29.23:796][  0]LogStats: UGameplayTagsManager::ConstructGameplayTagTree: GameplayTagTreeChangedEvent.Broadcast -  0.000 s
[2017.09.18-22.29.23:999][  0]LogAIModule: Creating AISystem for world Untitled
[2017.09.18-22.29.24:009][  0]LogInit: XAudio2 using 'Speakers (Realtek High Definition Audio)' : 2 channels at 48 kHz using 32 bits per sample (channel mask 0x3)
[2017.09.18-22.29.24:123][  0]LogInit: FAudioDevice initialized.
[2017.09.18-22.29.24:431][  0]LogDerivedDataCache: Saved boot cache 0.31s 93MB C:/Users/Megan Nadolski/AppData/Local/UnrealEngine/4.17/DerivedDataCache/Boot.ddc.
[2017.09.18-22.29.24:447][  0]LogInit: Texture streaming: Enabled
[2017.09.18-22.29.24:600][  0]LogEngineSessionManager: EngineSessionManager initialized
[2017.09.18-22.29.24:934][  0]LogInit: Transaction tracking system initialized
[2017.09.18-22.29.25:371][  0]BlueprintLog: New page: Editor Load
[2017.09.18-22.29.26:623][  0]LocalizationService: Localization service is disabled
[2017.09.18-22.29.27:526][  0]LogConsoleResponse: Display: 
[2017.09.18-22.29.27:864][  0]LogFileCache: Scanning file cache for directory 'C:/Users/Megan Nadolski/Documents/runner/EndlessRunner 4.17 - 2 4.17 - 2/Content/' took 0.05s
[2017.09.18-22.29.27:865][  0]LogCook: Display: Max memory allowance for cook 16384mb min free memory 0mb
[2017.09.18-22.29.27:865][  0]LogCook: Display: Mobile HDR setting 1
[2017.09.18-22.29.27:865][  0]LogGameplayTags: Display: UGameplayTagsManager::DoneAddingNativeTags. DelegateIsBound: 0
[2017.09.18-22.29.29:314][  0]SourceControl: Source control is disabled
[2017.09.18-22.29.29:314][  0]Cmd: MAP LOAD FILE="../../../../../../Users/Megan Nadolski/Documents/runner/EndlessRunner 4.17 - 2 4.17 - 2/Content/EndlesssRunner.umap" TEMPLATE=0 SHOWPROGRESS=1 FEATURELEVEL=3
[2017.09.18-22.29.29:314][  0]LightingResults: New page: Lighting Build
[2017.09.18-22.29.29:367][  0]MapCheck: New page: Map Check
[2017.09.18-22.29.29:368][  0]LightingResults: New page: Lighting Build
[2017.09.18-22.29.29:672][  0]LogAIModule: Creating AISystem for world EndlesssRunner
[2017.09.18-22.29.29:677][  0]LogEditorServer: Finished looking for orphan Actors (0.000 secs)
[2017.09.18-22.29.29:713][  0]Cmd: MAP CHECKDEP NOCLEARLOG
[2017.09.18-22.29.29:771][  0]MapCheck: Map check complete: 0 Error(s), 0 Warning(s), took 57.336ms to complete.
[2017.09.18-22.29.29:771][  0]LogFileHelpers: Loading map 'EndlesssRunner' took 0.457
[2017.09.18-22.29.30:351][  0]LogCollectionManager: Loaded 0 collections in 0.002530 seconds
[2017.09.18-22.29.30:543][  0]LogFileCache: Scanning file cache for directory 'C:/Users/Megan Nadolski/Documents/runner/EndlessRunner 4.17 - 2 4.17 - 2/Saved/Collections/' took 0.01s
[2017.09.18-22.29.30:543][  0]LogFileCache: Scanning file cache for directory 'C:/Users/Megan Nadolski/Documents/runner/EndlessRunner 4.17 - 2 4.17 - 2/Content/Developers/MeganNadolski/Collections/' took 0.01s
[2017.09.18-22.29.30:543][  0]LogFileCache: Scanning file cache for directory 'C:/Users/Megan Nadolski/Documents/runner/EndlessRunner 4.17 - 2 4.17 - 2/Content/Collections/' took 0.01s
[2017.09.18-22.29.30:543][  0]LogCollectionManager: Rebuilt the GUID cache for 0 collections in 0.000001 seconds
[2017.09.18-22.29.30:569][  0]LogContentBrowser: Native class hierarchy populated in 0.0251 seconds. Added 2386 classes and 500 folders.
[2017.09.18-22.29.30:674][  0]LogContentBrowser: Native class hierarchy updated for 'WidgetCarousel' in 0.0007 seconds. Added 0 classes and 0 folders.
[2017.09.18-22.29.31:875][  0]LogContentBrowser: Native class hierarchy updated for 'AddContentDialog' in 0.0008 seconds. Added 0 classes and 0 folders.
[2017.09.18-22.29.31:967][  0]LogContentBrowser: Native class hierarchy updated for 'SceneOutliner' in 0.0008 seconds. Added 1 classes and 2 folders.
[2017.09.18-22.29.32:089][  0]LogSlate: Took 0.000215 seconds to synchronously load lazily loaded font '../../../Engine/Content/Slate/Fonts/Roboto-Regular.ttf' (155K)
[2017.09.18-22.29.32:091][  0]LogSlate: Took 0.000228 seconds to synchronously load lazily loaded font '../../../Engine/Content/Slate/Fonts/Roboto-Bold.ttf' (160K)
[2017.09.18-22.29.32:123][  0]LogSlate: Took 0.026782 seconds to synchronously load lazily loaded font '../../../Engine/Content/Editor/Slate/Fonts/FontAwesome.ttf' (139K)
[2017.09.18-22.29.32:694][  0]LogRenderer: Reallocating scene render targets to support 964x436 Format 10 NumSamples 1 (Frame:1).
[2017.09.18-22.29.32:951][  0]LogSlate: Took 0.036806 seconds to synchronously load lazily loaded font '../../../Engine/Content/Slate/Fonts/Roboto-Light.ttf' (159K)
[2017.09.18-22.29.33:146][  0]LogContentBrowser: Native class hierarchy updated for 'HierarchicalLODOutliner' in 0.0008 seconds. Added 1 classes and 2 folders.
[2017.09.18-22.29.33:146][  0]LogLoad: (Engine Initialization) Total time: 26.13 seconds
[2017.09.18-22.29.33:146][  0]LogLoad: (Engine Initialization) Total Blueprint compile time: 0.00 seconds
[2017.09.18-22.29.33:147][  0]LogExternalProfiler: No external profilers were discovered.  External profiling features will not be available.
[2017.09.18-22.29.33:166][  0]LogWindowsTextInputMethodSystem: Display: IME system now deactivated.
[2017.09.18-22.29.33:200][  0]LogContentStreaming: Texture pool size now 1000 MB
[2017.09.18-22.29.33:363][  1]LogAssetRegistry: Asset discovery search completed in 18.1823 seconds
[2017.09.18-22.29.33:365][  1]LogCollectionManager: Rebuilt the object cache for 0 collections in 0.000001 seconds (found 0 objects)
[2017.09.18-22.29.33:365][  1]LogCollectionManager: Fixed up redirectors for 0 collections in 0.000050 seconds (updated 0 objects)
[2017.09.18-22.29.49:287][909]LogTemp: Repeating last play command: Selected Viewport
[2017.09.18-22.29.49:484][909]LogPlayLevel: PlayLevel: No blueprints needed recompiling
[2017.09.18-22.29.49:586][909]PIE: New page: PIE session: EndlesssRunner (Sep 18, 2017, 2:29:49 PM)
[2017.09.18-22.29.49:586][909]LogPlayLevel: Creating play world package: /Game/UEDPIE_0_EndlesssRunner
[2017.09.18-22.29.49:590][909]LogPlayLevel: PIE: StaticDuplicateObject took: (0.003822s)
[2017.09.18-22.29.49:591][909]LogAIModule: Creating AISystem for world EndlesssRunner
[2017.09.18-22.29.49:591][909]LogPlayLevel: PIE: World Init took: (0.001648s)
[2017.09.18-22.29.49:592][909]LogPlayLevel: PIE: Created PIE world by copying editor world from /Game/EndlesssRunner.EndlesssRunner to /Game/UEDPIE_0_EndlesssRunner.EndlesssRunner (0.006036s)
[2017.09.18-22.29.49:624][909]LogInit: XAudio2 using 'Speakers (Realtek High Definition Audio)' : 2 channels at 48 kHz using 32 bits per sample (channel mask 0x3)
[2017.09.18-22.29.49:678][909]LogInit: FAudioDevice initialized.
[2017.09.18-22.29.53:694][909]LogLoad: Game class is 'RunGameMode_C'
[2017.09.18-22.29.53:710][909]LogWorld: Bringing World /Game/UEDPIE_0_EndlesssRunner.EndlesssRunner up for play (max tick rate 60) at 2017.09.18-18.29.53
[2017.09.18-22.29.53:711][909]LogWorld: Bringing up level for play took: 0.001032
[2017.09.18-22.29.53:813][909]LogContentBrowser: Native class hierarchy updated for 'MovieSceneCapture' in 0.0008 seconds. Added 11 classes and 0 folders.
[2017.09.18-22.29.53:849][909]PIE: Play in editor start time for /Game/UEDPIE_0_EndlesssRunner 4.793
[2017.09.18-22.29.53:920][910]LogCharacterMovement: Warning: GetSimulationTimeStep() - Max iterations 8 hit while remaining time 0.073853 > MaxSimulationTimeStep (0.050) for 'RunnerPerson_C_0', movement 'Walking'
[2017.09.18-22.29.58:161][145]LogTemp: Repeating last play command: Selected Viewport
[2017.09.18-22.29.58:179][145]LogPlayLevel: PlayLevel: No blueprints needed recompiling
[2017.09.18-22.29.58:179][145]PIE: New page: PIE session: EndlesssRunner (Sep 18, 2017, 2:29:58 PM)
[2017.09.18-22.29.58:179][145]LogPlayLevel: Creating play world package: /Game/UEDPIE_0_EndlesssRunner
[2017.09.18-22.29.58:181][145]LogPlayLevel: PIE: StaticDuplicateObject took: (0.001947s)
[2017.09.18-22.29.58:182][145]LogAIModule: Creating AISystem for world EndlesssRunner
[2017.09.18-22.29.58:182][145]LogPlayLevel: PIE: World Init took: (0.000987s)
[2017.09.18-22.29.58:182][145]LogPlayLevel: PIE: Created PIE world by copying editor world from /Game/EndlesssRunner.EndlesssRunner to /Game/UEDPIE_0_EndlesssRunner.EndlesssRunner (0.003274s)
[2017.09.18-22.29.58:195][145]LogInit: XAudio2 using 'Speakers (Realtek High Definition Audio)' : 2 channels at 48 kHz using 32 bits per sample (channel mask 0x3)
[2017.09.18-22.29.58:241][145]LogInit: FAudioDevice initialized.
[2017.09.18-22.29.58:278][145]LogLoad: Game class is 'RunGameMode_C'
[2017.09.18-22.29.58:280][145]LogWorld: Bringing World /Game/UEDPIE_0_EndlesssRunner.EndlesssRunner up for play (max tick rate 60) at 2017.09.18-18.29.58
[2017.09.18-22.29.58:280][145]LogWorld: Bringing up level for play took: 0.001470
[2017.09.18-22.29.58:301][145]PIE: Play in editor start time for /Game/UEDPIE_0_EndlesssRunner -0.755
[2017.09.18-22.30.11:844][950]LogTemp: Repeating last play command: Selected Viewport
[2017.09.18-22.30.11:863][950]LogPlayLevel: PlayLevel: No blueprints needed recompiling
[2017.09.18-22.30.11:863][950]PIE: New page: PIE session: EndlesssRunner (Sep 18, 2017, 2:30:11 PM)
[2017.09.18-22.30.11:863][950]LogPlayLevel: Creating play world package: /Game/UEDPIE_0_EndlesssRunner
[2017.09.18-22.30.11:865][950]LogPlayLevel: PIE: StaticDuplicateObject took: (0.001644s)
[2017.09.18-22.30.11:865][950]LogAIModule: Creating AISystem for world EndlesssRunner
[2017.09.18-22.30.11:865][950]LogPlayLevel: PIE: World Init took: (0.000865s)
[2017.09.18-22.30.11:866][950]LogPlayLevel: PIE: Created PIE world by copying editor world from /Game/EndlesssRunner.EndlesssRunner to /Game/UEDPIE_0_EndlesssRunner.EndlesssRunner (0.002827s)
[2017.09.18-22.30.11:880][950]LogInit: XAudio2 using 'Speakers (Realtek High Definition Audio)' : 2 channels at 48 kHz using 32 bits per sample (channel mask 0x3)
[2017.09.18-22.30.11:926][950]LogInit: FAudioDevice initialized.
[2017.09.18-22.30.11:960][950]LogLoad: Game class is 'RunGameMode_C'
[2017.09.18-22.30.11:962][950]LogWorld: Bringing World /Game/UEDPIE_0_EndlesssRunner.EndlesssRunner up for play (max tick rate 60) at 2017.09.18-18.30.11
[2017.09.18-22.30.11:963][950]LogWorld: Bringing up level for play took: 0.001134
[2017.09.18-22.30.11:988][950]PIE: Play in editor start time for /Game/UEDPIE_0_EndlesssRunner 0.933
[2017.09.18-22.30.16:383][210]LogTemp: Repeating last play command: Selected Viewport
[2017.09.18-22.30.16:401][210]LogPlayLevel: PlayLevel: No blueprints needed recompiling
[2017.09.18-22.30.16:402][210]PIE: New page: PIE session: EndlesssRunner (Sep 18, 2017, 2:30:16 PM)
[2017.09.18-22.30.16:402][210]LogPlayLevel: Creating play world package: /Game/UEDPIE_0_EndlesssRunner
[2017.09.18-22.30.16:404][210]LogPlayLevel: PIE: StaticDuplicateObject took: (0.001849s)
[2017.09.18-22.30.16:404][210]LogAIModule: Creating AISystem for world EndlesssRunner
[2017.09.18-22.30.16:405][210]LogPlayLevel: PIE: World Init took: (0.001007s)
[2017.09.18-22.30.16:405][210]LogPlayLevel: PIE: Created PIE world by copying editor world from /Game/EndlesssRunner.EndlesssRunner to /Game/UEDPIE_0_EndlesssRunner.EndlesssRunner (0.003152s)
[2017.09.18-22.30.16:423][210]LogInit: XAudio2 using 'Speakers (Realtek High Definition Audio)' : 2 channels at 48 kHz using 32 bits per sample (channel mask 0x3)
[2017.09.18-22.30.16:472][210]LogInit: FAudioDevice initialized.
[2017.09.18-22.30.16:508][210]LogLoad: Game class is 'RunGameMode_C'
[2017.09.18-22.30.16:511][210]LogWorld: Bringing World /Game/UEDPIE_0_EndlesssRunner.EndlesssRunner up for play (max tick rate 60) at 2017.09.18-18.30.16
[2017.09.18-22.30.16:511][210]LogWorld: Bringing up level for play took: 0.001069
[2017.09.18-22.30.16:530][210]PIE: Play in editor start time for /Game/UEDPIE_0_EndlesssRunner -0.526
[2017.09.18-22.30.19:865][408]Cmd: RestartLevel
[2017.09.18-22.30.19:976][409]LogNet: Browse: /Game/EndlesssRunner?restart
[2017.09.18-22.30.19:985][409]LogLoad: LoadMap: /Game/EndlesssRunner
[2017.09.18-22.30.20:021][409]Cmd: MEM
[2017.09.18-22.30.20:033][409]LogMemory: Platform Memory Stats for Windows
[2017.09.18-22.30.20:033][409]LogMemory: Process Physical Memory: 1287.74 MB used, 1369.63 MB peak
[2017.09.18-22.30.20:033][409]LogMemory: Process Virtual Memory: 2137.95 MB used, 2190.02 MB peak
[2017.09.18-22.30.20:033][409]LogMemory: Physical Memory: 6591.18 MB used,  5545.87 MB free, 12137.05 MB total
[2017.09.18-22.30.20:033][409]LogMemory: Virtual Memory: 3005.18 MB used,  5545.87 MB free, 134217728.00 MB total
[2017.09.18-22.30.20:033][409]LogMemory: 
[2017.09.18-22.30.20:033][409]Allocator Stats for TBB: (not implemented)
[2017.09.18-22.30.20:057][409]LogPlayLevel: Creating play world package: /Game/UEDPIE_0_EndlesssRunner
[2017.09.18-22.30.20:059][409]LogPlayLevel: PIE: StaticDuplicateObject took: (0.001888s)
[2017.09.18-22.30.20:059][409]LogAIModule: Creating AISystem for world EndlesssRunner
[2017.09.18-22.30.20:059][409]LogPlayLevel: PIE: World Init took: (0.000815s)
[2017.09.18-22.30.20:060][409]LogPlayLevel: PIE: Created PIE world by copying editor world from /Game/EndlesssRunner.EndlesssRunner to /Game/UEDPIE_0_EndlesssRunner.EndlesssRunner (0.003108s)
[2017.09.18-22.30.20:060][409]LogLoad: Game class is 'RunGameMode_C'
[2017.09.18-22.30.20:062][409]LogWorld: Bringing World /Game/UEDPIE_0_EndlesssRunner.EndlesssRunner up for play (max tick rate 60) at 2017.09.18-18.30.20
[2017.09.18-22.30.20:062][409]LogWorld: Bringing up level for play took: 0.001411
[2017.09.18-22.30.20:085][409]LogLoad: Took 0.100179 seconds to LoadMap(/Game/UEDPIE_0_EndlesssRunner)
[2017.09.18-22.30.56:919][587]LogSlate: Took 0.000176 seconds to synchronously load lazily loaded font '../../../Engine/Content/Slate/Fonts/Roboto-Light.ttf' (159K)
[2017.09.18-22.30.57:604][587]LogSlate: Took 0.000205 seconds to synchronously load lazily loaded font '../../../Engine/Content/Slate/Fonts/Roboto-Regular.ttf' (155K)
[2017.09.18-22.30.57:991][587]LogContentBrowser: Native class hierarchy updated for 'BlueprintGraph' in 0.0012 seconds. Added 113 classes and 0 folders.
[2017.09.18-22.30.59:704][587]LogSlate: Took 0.020897 seconds to synchronously load lazily loaded font '../../../Engine/Content/Editor/Slate/Fonts/Roboto-BoldCondensed.ttf' (158K)
[2017.09.18-22.31.37:190][786]LogSlate: Took 0.029724 seconds to synchronously load lazily loaded font '../../../Engine/Content/Editor/Slate/Fonts/Roboto-Italic.ttf' (157K)
[2017.09.18-22.33.35:161][800]BlueprintLog: New page: Compile RunnerPerson
[2017.09.18-22.33.38:726][837]LogSavePackage: Save=119.36ms
[2017.09.18-22.33.38:726][837]LogSavePackage: Moving '../../../../../../Users/Megan Nadolski/Documents/runner/EndlessRunner 4.17 - 2 4.17 - 2/Saved/RunnerPerson46D8FA8B49A45FF512875DAD6A50614E.tmp' to '../../../../../../Users/Megan Nadolski/Documents/runner/EndlessRunner 4.17 - 2 4.17 - 2/Content/ThirdPersonBP/Blueprints/RunnerPerson.uasset'
[2017.09.18-22.33.38:729][837]LogSavePackage: Display: Finished SavePackage ../../../../../../Users/Megan Nadolski/Documents/runner/EndlessRunner 4.17 - 2 4.17 - 2/Content/ThirdPersonBP/Blueprints/RunnerPerson.uasset
[2017.09.18-22.33.41:454][994]LogTemp: Repeating last play command: Selected Viewport
[2017.09.18-22.33.41:486][994]LogPlayLevel: PlayLevel: No blueprints needed recompiling
[2017.09.18-22.33.41:486][994]PIE: New page: PIE session: EndlesssRunner (Sep 18, 2017, 2:33:41 PM)
[2017.09.18-22.33.41:486][994]LogPlayLevel: Creating play world package: /Game/UEDPIE_0_EndlesssRunner
[2017.09.18-22.33.41:488][994]LogPlayLevel: PIE: StaticDuplicateObject took: (0.001857s)
[2017.09.18-22.33.41:489][994]LogAIModule: Creating AISystem for world EndlesssRunner
[2017.09.18-22.33.41:490][994]LogPlayLevel: PIE: World Init took: (0.001419s)
[2017.09.18-22.33.41:490][994]LogPlayLevel: PIE: Created PIE world by copying editor world from /Game/EndlesssRunner.EndlesssRunner to /Game/UEDPIE_0_EndlesssRunner.EndlesssRunner (0.003610s)
[2017.09.18-22.33.41:511][994]LogInit: XAudio2 using 'Speakers (Realtek High Definition Audio)' : 2 channels at 48 kHz using 32 bits per sample (channel mask 0x3)
[2017.09.18-22.33.41:555][994]LogInit: FAudioDevice initialized.
[2017.09.18-22.33.41:586][994]LogLoad: Game class is 'RunGameMode_C'
[2017.09.18-22.33.41:588][994]LogWorld: Bringing World /Game/UEDPIE_0_EndlesssRunner.EndlesssRunner up for play (max tick rate 60) at 2017.09.18-18.33.41
[2017.09.18-22.33.41:588][994]LogWorld: Bringing up level for play took: 0.001054
[2017.09.18-22.33.41:613][994]PIE: Play in editor start time for /Game/UEDPIE_0_EndlesssRunner 0.558
[2017.09.18-22.33.46:264][273]Cmd: RestartLevel
[2017.09.18-22.33.46:280][274]LogNet: Browse: /Game/EndlesssRunner?restart
[2017.09.18-22.33.46:280][274]LogLoad: LoadMap: /Game/EndlesssRunner
[2017.09.18-22.33.46:308][274]Cmd: MEM
[2017.09.18-22.33.46:324][274]LogMemory: Platform Memory Stats for Windows
[2017.09.18-22.33.46:324][274]LogMemory: Process Physical Memory: 1497.02 MB used, 1543.09 MB peak
[2017.09.18-22.33.46:324][274]LogMemory: Process Virtual Memory: 2597.99 MB used, 2630.67 MB peak
[2017.09.18-22.33.46:324][274]LogMemory: Physical Memory: 6517.93 MB used,  5619.12 MB free, 12137.05 MB total
[2017.09.18-22.33.46:324][274]LogMemory: Virtual Memory: 3429.99 MB used,  5619.12 MB free, 134217728.00 MB total
[2017.09.18-22.33.46:324][274]LogMemory: 
[2017.09.18-22.33.46:324][274]Allocator Stats for TBB: (not implemented)
[2017.09.18-22.33.46:324][274]LogPlayLevel: Creating play world package: /Game/UEDPIE_0_EndlesssRunner
[2017.09.18-22.33.46:326][274]LogPlayLevel: PIE: StaticDuplicateObject took: (0.001488s)
[2017.09.18-22.33.46:327][274]LogAIModule: Creating AISystem for world EndlesssRunner
[2017.09.18-22.33.46:327][274]LogPlayLevel: PIE: World Init took: (0.001015s)
[2017.09.18-22.33.46:327][274]LogPlayLevel: PIE: Created PIE world by copying editor world from /Game/EndlesssRunner.EndlesssRunner to /Game/UEDPIE_0_EndlesssRunner.EndlesssRunner (0.002790s)
[2017.09.18-22.33.46:327][274]LogLoad: Game class is 'RunGameMode_C'
[2017.09.18-22.33.46:333][274]LogWorld: Bringing World /Game/UEDPIE_0_EndlesssRunner.EndlesssRunner up for play (max tick rate 60) at 2017.09.18-18.33.46
[2017.09.18-22.33.46:333][274]LogWorld: Bringing up level for play took: 0.004776
[2017.09.18-22.33.46:358][274]LogLoad: Took 0.077736 seconds to LoadMap(/Game/UEDPIE_0_EndlesssRunner)
[2017.09.18-22.34.00:771][100]BlueprintLog: New page: Compile RunnerPerson
[2017.09.18-22.34.03:867][126]LogSavePackage: Save=118.30ms
[2017.09.18-22.34.03:867][126]LogSavePackage: Moving '../../../../../../Users/Megan Nadolski/Documents/runner/EndlessRunner 4.17 - 2 4.17 - 2/Saved/RunnerPerson86F14C464DE602B2ABD30F9247BFE284.tmp' to '../../../../../../Users/Megan Nadolski/Documents/runner/EndlessRunner 4.17 - 2 4.17 - 2/Content/ThirdPersonBP/Blueprints/RunnerPerson.uasset'
[2017.09.18-22.34.03:871][126]LogSavePackage: Display: Finished SavePackage ../../../../../../Users/Megan Nadolski/Documents/runner/EndlessRunner 4.17 - 2 4.17 - 2/Content/ThirdPersonBP/Blueprints/RunnerPerson.uasset
[2017.09.18-22.34.17:849][960]LogTemp: Repeating last play command: Selected Viewport
[2017.09.18-22.34.17:868][960]LogPlayLevel: PlayLevel: No blueprints needed recompiling
[2017.09.18-22.34.17:868][960]PIE: New page: PIE session: EndlesssRunner (Sep 18, 2017, 2:34:17 PM)
[2017.09.18-22.34.17:868][960]LogPlayLevel: Creating play world package: /Game/UEDPIE_0_EndlesssRunner
[2017.09.18-22.34.17:870][960]LogPlayLevel: PIE: StaticDuplicateObject took: (0.001695s)
[2017.09.18-22.34.17:871][960]LogAIModule: Creating AISystem for world EndlesssRunner
[2017.09.18-22.34.17:871][960]LogPlayLevel: PIE: World Init took: (0.001062s)
[2017.09.18-22.34.17:871][960]LogPlayLevel: PIE: Created PIE world by copying editor world from /Game/EndlesssRunner.EndlesssRunner to /Game/UEDPIE_0_EndlesssRunner.EndlesssRunner (0.003066s)
[2017.09.18-22.34.17:891][960]LogInit: XAudio2 using 'Speakers (Realtek High Definition Audio)' : 2 channels at 48 kHz using 32 bits per sample (channel mask 0x3)
[2017.09.18-22.34.17:934][960]LogInit: FAudioDevice initialized.
[2017.09.18-22.34.17:966][960]LogLoad: Game class is 'RunGameMode_C'
[2017.09.18-22.34.17:968][960]LogWorld: Bringing World /Game/UEDPIE_0_EndlesssRunner.EndlesssRunner up for play (max tick rate 60) at 2017.09.18-18.34.17
[2017.09.18-22.34.17:968][960]LogWorld: Bringing up level for play took: 0.001166
[2017.09.18-22.34.17:994][960]PIE: Play in editor start time for /Game/UEDPIE_0_EndlesssRunner 0.938
[2017.09.18-22.34.33:433][846]BlueprintLog: New page: Compile RunnerPerson
[2017.09.18-22.34.36:596][876]LogSavePackage: Save=118.85ms
[2017.09.18-22.34.36:596][876]LogSavePackage: Moving '../../../../../../Users/Megan Nadolski/Documents/runner/EndlessRunner 4.17 - 2 4.17 - 2/Saved/RunnerPersonA536004A435265B2AF4CA2861F5B0ED5.tmp' to '../../../../../../Users/Megan Nadolski/Documents/runner/EndlessRunner 4.17 - 2 4.17 - 2/Content/ThirdPersonBP/Blueprints/RunnerPerson.uasset'
[2017.09.18-22.34.36:600][876]LogSavePackage: Display: Finished SavePackage ../../../../../../Users/Megan Nadolski/Documents/runner/EndlessRunner 4.17 - 2 4.17 - 2/Content/ThirdPersonBP/Blueprints/RunnerPerson.uasset
[2017.09.18-22.34.37:338][919]Cmd: SELECT NONE
[2017.09.18-22.34.40:459][102]LogTemp: Repeating last play command: Selected Viewport
[2017.09.18-22.34.40:478][102]LogPlayLevel: PlayLevel: No blueprints needed recompiling
[2017.09.18-22.34.40:478][102]PIE: New page: PIE session: EndlesssRunner (Sep 18, 2017, 2:34:40 PM)
[2017.09.18-22.34.40:478][102]LogPlayLevel: Creating play world package: /Game/UEDPIE_0_EndlesssRunner
[2017.09.18-22.34.40:480][102]LogPlayLevel: PIE: StaticDuplicateObject took: (0.001770s)
[2017.09.18-22.34.40:481][102]LogAIModule: Creating AISystem for world EndlesssRunner
[2017.09.18-22.34.40:481][102]LogPlayLevel: PIE: World Init took: (0.001090s)
[2017.09.18-22.34.40:481][102]LogPlayLevel: PIE: Created PIE world by copying editor world from /Game/EndlesssRunner.EndlesssRunner to /Game/UEDPIE_0_EndlesssRunner.EndlesssRunner (0.003212s)
[2017.09.18-22.34.40:500][102]LogInit: XAudio2 using 'Speakers (Realtek High Definition Audio)' : 2 channels at 48 kHz using 32 bits per sample (channel mask 0x3)
[2017.09.18-22.34.40:544][102]LogInit: FAudioDevice initialized.
[2017.09.18-22.34.40:574][102]LogLoad: Game class is 'RunGameMode_C'
[2017.09.18-22.34.40:576][102]LogWorld: Bringing World /Game/UEDPIE_0_EndlesssRunner.EndlesssRunner up for play (max tick rate 60) at 2017.09.18-18.34.40
[2017.09.18-22.34.40:577][102]LogWorld: Bringing up level for play took: 0.001070
[2017.09.18-22.34.40:599][102]PIE: Play in editor start time for /Game/UEDPIE_0_EndlesssRunner -0.457
[2017.09.18-22.34.43:234][260]Cmd: RestartLevel
[2017.09.18-22.34.43:250][261]LogNet: Browse: /Game/EndlesssRunner?restart
[2017.09.18-22.34.43:250][261]LogLoad: LoadMap: /Game/EndlesssRunner
[2017.09.18-22.34.43:275][261]Cmd: MEM
[2017.09.18-22.34.43:291][261]LogMemory: Platform Memory Stats for Windows
[2017.09.18-22.34.43:291][261]LogMemory: Process Physical Memory: 1462.92 MB used, 1579.05 MB peak
[2017.09.18-22.34.43:291][261]LogMemory: Process Virtual Memory: 2479.18 MB used, 2728.13 MB peak
[2017.09.18-22.34.43:291][261]LogMemory: Physical Memory: 6487.25 MB used,  5649.80 MB free, 12137.05 MB total
[2017.09.18-22.34.43:291][261]LogMemory: Virtual Memory: 3385.99 MB used,  5649.80 MB free, 134217728.00 MB total
[2017.09.18-22.34.43:291][261]LogMemory: 
[2017.09.18-22.34.43:291][261]Allocator Stats for TBB: (not implemented)
[2017.09.18-22.34.43:291][261]LogPlayLevel: Creating play world package: /Game/UEDPIE_0_EndlesssRunner
[2017.09.18-22.34.43:293][261]LogPlayLevel: PIE: StaticDuplicateObject took: (0.001887s)
[2017.09.18-22.34.43:294][261]LogAIModule: Creating AISystem for world EndlesssRunner
[2017.09.18-22.34.43:294][261]LogPlayLevel: PIE: World Init took: (0.000927s)
[2017.09.18-22.34.43:294][261]LogPlayLevel: PIE: Created PIE world by copying editor world from /Game/EndlesssRunner.EndlesssRunner to /Game/UEDPIE_0_EndlesssRunner.EndlesssRunner (0.003108s)
[2017.09.18-22.34.43:295][261]LogLoad: Game class is 'RunGameMode_C'
[2017.09.18-22.34.43:311][261]LogWorld: Bringing World /Game/UEDPIE_0_EndlesssRunner.EndlesssRunner up for play (max tick rate 60) at 2017.09.18-18.34.43
[2017.09.18-22.34.43:311][261]LogWorld: Bringing up level for play took: 0.015533
[2017.09.18-22.34.43:335][261]LogLoad: Took 0.084192 seconds to LoadMap(/Game/UEDPIE_0_EndlesssRunner)
[2017.09.18-22.34.47:397][505]Cmd: RestartLevel
[2017.09.18-22.34.47:413][506]LogNet: Browse: /Game/EndlesssRunner?restart
[2017.09.18-22.34.47:413][506]LogLoad: LoadMap: /Game/EndlesssRunner
[2017.09.18-22.34.47:438][506]Cmd: MEM
[2017.09.18-22.34.47:454][506]LogMemory: Platform Memory Stats for Windows
[2017.09.18-22.34.47:454][506]LogMemory: Process Physical Memory: 1517.14 MB used, 1579.05 MB peak
[2017.09.18-22.34.47:454][506]LogMemory: Process Virtual Memory: 2439.72 MB used, 2728.13 MB peak
[2017.09.18-22.34.47:454][506]LogMemory: Physical Memory: 6521.42 MB used,  5615.63 MB free, 12137.05 MB total
[2017.09.18-22.34.47:454][506]LogMemory: Virtual Memory: 3357.99 MB used,  5615.63 MB free, 134217728.00 MB total
[2017.09.18-22.34.47:454][506]LogMemory: 
[2017.09.18-22.34.47:454][506]Allocator Stats for TBB: (not implemented)
[2017.09.18-22.34.47:454][506]LogPlayLevel: Creating play world package: /Game/UEDPIE_0_EndlesssRunner
[2017.09.18-22.34.47:456][506]LogPlayLevel: PIE: StaticDuplicateObject took: (0.001531s)
[2017.09.18-22.34.47:456][506]LogAIModule: Creating AISystem for world EndlesssRunner
[2017.09.18-22.34.47:457][506]LogPlayLevel: PIE: World Init took: (0.000806s)
[2017.09.18-22.34.47:457][506]LogPlayLevel: PIE: Created PIE world by copying editor world from /Game/EndlesssRunner.EndlesssRunner to /Game/UEDPIE_0_EndlesssRunner.EndlesssRunner (0.002640s)
[2017.09.18-22.34.47:457][506]LogLoad: Game class is 'RunGameMode_C'
[2017.09.18-22.34.47:460][506]LogWorld: Bringing World /Game/UEDPIE_0_EndlesssRunner.EndlesssRunner up for play (max tick rate 60) at 2017.09.18-18.34.47
[2017.09.18-22.34.47:460][506]LogWorld: Bringing up level for play took: 0.002513
[2017.09.18-22.34.47:483][506]LogLoad: Took 0.069681 seconds to LoadMap(/Game/UEDPIE_0_EndlesssRunner)
[2017.09.18-22.35.41:090][677]BlueprintLog: New page: Compile RunnerPerson
[2017.09.18-22.35.44:199][703]LogSavePackage: Save=118.77ms
[2017.09.18-22.35.44:199][703]LogSavePackage: Moving '../../../../../../Users/Megan Nadolski/Documents/runner/EndlessRunner 4.17 - 2 4.17 - 2/Saved/RunnerPerson23EA5CD342A2C56B67B1EDB7A94C6161.tmp' to '../../../../../../Users/Megan Nadolski/Documents/runner/EndlessRunner 4.17 - 2 4.17 - 2/Content/ThirdPersonBP/Blueprints/RunnerPerson.uasset'
[2017.09.18-22.35.44:203][703]LogSavePackage: Display: Finished SavePackage ../../../../../../Users/Megan Nadolski/Documents/runner/EndlessRunner 4.17 - 2 4.17 - 2/Content/ThirdPersonBP/Blueprints/RunnerPerson.uasset
[2017.09.18-22.35.47:622][903]LogTemp: Repeating last play command: Selected Viewport
[2017.09.18-22.35.47:641][903]LogPlayLevel: PlayLevel: No blueprints needed recompiling
[2017.09.18-22.35.47:641][903]PIE: New page: PIE session: EndlesssRunner (Sep 18, 2017, 2:35:47 PM)
[2017.09.18-22.35.47:641][903]LogPlayLevel: Creating play world package: /Game/UEDPIE_0_EndlesssRunner
[2017.09.18-22.35.47:643][903]LogPlayLevel: PIE: StaticDuplicateObject took: (0.001859s)
[2017.09.18-22.35.47:644][903]LogAIModule: Creating AISystem for world EndlesssRunner
[2017.09.18-22.35.47:644][903]LogPlayLevel: PIE: World Init took: (0.001190s)
[2017.09.18-22.35.47:644][903]LogPlayLevel: PIE: Created PIE world by copying editor world from /Game/EndlesssRunner.EndlesssRunner to /Game/UEDPIE_0_EndlesssRunner.EndlesssRunner (0.003410s)
[2017.09.18-22.35.47:666][903]LogInit: XAudio2 using 'Speakers (Realtek High Definition Audio)' : 2 channels at 48 kHz using 32 bits per sample (channel mask 0x3)
[2017.09.18-22.35.47:709][903]LogInit: FAudioDevice initialized.
[2017.09.18-22.35.47:740][903]LogLoad: Game class is 'RunGameMode_C'
[2017.09.18-22.35.47:741][903]LogWorld: Bringing World /Game/UEDPIE_0_EndlesssRunner.EndlesssRunner up for play (max tick rate 60) at 2017.09.18-18.35.47
[2017.09.18-22.35.47:742][903]LogWorld: Bringing up level for play took: 0.001052
[2017.09.18-22.35.47:769][903]PIE: Play in editor start time for /Game/UEDPIE_0_EndlesssRunner 0.713
[2017.09.18-22.36.04:095][833]BlueprintLog: New page: Compile RunnerPerson
[2017.09.18-22.36.07:440][864]LogSavePackage: Save=117.95ms
[2017.09.18-22.36.07:440][864]LogSavePackage: Moving '../../../../../../Users/Megan Nadolski/Documents/runner/EndlessRunner 4.17 - 2 4.17 - 2/Saved/RunnerPersonC618B9AE4A26F08F2C58E2A8A833E7A8.tmp' to '../../../../../../Users/Megan Nadolski/Documents/runner/EndlessRunner 4.17 - 2 4.17 - 2/Content/ThirdPersonBP/Blueprints/RunnerPerson.uasset'
[2017.09.18-22.36.07:444][864]LogSavePackage: Display: Finished SavePackage ../../../../../../Users/Megan Nadolski/Documents/runner/EndlessRunner 4.17 - 2 4.17 - 2/Content/ThirdPersonBP/Blueprints/RunnerPerson.uasset
[2017.09.18-22.48.06:135][863]LogSlate: Took 0.000249 seconds to synchronously load lazily loaded font '../../../Engine/Content/Slate/Fonts/Roboto-Light.ttf' (159K)
[2017.09.18-22.48.07:264][931]BlueprintLog: New page: Compile RunnerPerson
[2017.09.18-22.48.13:527][140]LogSavePackage: Save=119.13ms
[2017.09.18-22.48.13:527][140]LogSavePackage: Moving '../../../../../../Users/Megan Nadolski/Documents/runner/EndlessRunner 4.17 - 2 4.17 - 2/Saved/RunnerPerson61CABA104BA22DA7739564B5944EEBC8.tmp' to '../../../../../../Users/Megan Nadolski/Documents/runner/EndlessRunner 4.17 - 2 4.17 - 2/Content/ThirdPersonBP/Blueprints/RunnerPerson.uasset'
[2017.09.18-22.48.13:531][140]LogSavePackage: Display: Finished SavePackage ../../../../../../Users/Megan Nadolski/Documents/runner/EndlessRunner 4.17 - 2 4.17 - 2/Content/ThirdPersonBP/Blueprints/RunnerPerson.uasset
[2017.09.18-22.48.26:750][927]LogTemp: Repeating last play command: Selected Viewport
[2017.09.18-22.48.26:769][927]LogPlayLevel: PlayLevel: No blueprints needed recompiling
[2017.09.18-22.48.26:770][927]PIE: New page: PIE session: EndlesssRunner (Sep 18, 2017, 2:48:26 PM)
[2017.09.18-22.48.26:770][927]LogPlayLevel: Creating play world package: /Game/UEDPIE_0_EndlesssRunner
[2017.09.18-22.48.26:772][927]LogPlayLevel: PIE: StaticDuplicateObject took: (0.002008s)
[2017.09.18-22.48.26:773][927]LogAIModule: Creating AISystem for world EndlesssRunner
[2017.09.18-22.48.26:773][927]LogPlayLevel: PIE: World Init took: (0.001505s)
[2017.09.18-22.48.26:773][927]LogPlayLevel: PIE: Created PIE world by copying editor world from /Game/EndlesssRunner.EndlesssRunner to /Game/UEDPIE_0_EndlesssRunner.EndlesssRunner (0.003855s)
[2017.09.18-22.48.26:793][927]LogInit: XAudio2 using 'Speakers (Realtek High Definition Audio)' : 2 channels at 48 kHz using 32 bits per sample (channel mask 0x3)
[2017.09.18-22.48.26:840][927]LogInit: FAudioDevice initialized.
[2017.09.18-22.48.26:870][927]LogLoad: Game class is 'RunGameMode_C'
[2017.09.18-22.48.26:872][927]LogWorld: Bringing World /Game/UEDPIE_0_EndlesssRunner.EndlesssRunner up for play (max tick rate 60) at 2017.09.18-18.48.26
[2017.09.18-22.48.26:873][927]LogWorld: Bringing up level for play took: 0.001184
[2017.09.18-22.48.26:896][927]PIE: Play in editor start time for /Game/UEDPIE_0_EndlesssRunner -0.16
[2017.09.18-22.48.32:525][260]LogTemp: Repeating last play command: Selected Viewport
[2017.09.18-22.48.32:544][260]LogPlayLevel: PlayLevel: No blueprints needed recompiling
[2017.09.18-22.48.32:545][260]PIE: New page: PIE session: EndlesssRunner (Sep 18, 2017, 2:48:32 PM)
[2017.09.18-22.48.32:545][260]LogPlayLevel: Creating play world package: /Game/UEDPIE_0_EndlesssRunner
[2017.09.18-22.48.32:546][260]LogPlayLevel: PIE: StaticDuplicateObject took: (0.001624s)
[2017.09.18-22.48.32:547][260]LogAIModule: Creating AISystem for world EndlesssRunner
[2017.09.18-22.48.32:548][260]LogPlayLevel: PIE: World Init took: (0.001254s)
[2017.09.18-22.48.32:548][260]LogPlayLevel: PIE: Created PIE world by copying editor world from /Game/EndlesssRunner.EndlesssRunner to /Game/UEDPIE_0_EndlesssRunner.EndlesssRunner (0.003160s)
[2017.09.18-22.48.32:570][260]LogInit: XAudio2 using 'Speakers (Realtek High Definition Audio)' : 2 channels at 48 kHz using 32 bits per sample (channel mask 0x3)
[2017.09.18-22.48.32:613][260]LogInit: FAudioDevice initialized.
[2017.09.18-22.48.32:649][260]LogLoad: Game class is 'RunGameMode_C'
[2017.09.18-22.48.32:651][260]LogWorld: Bringing World /Game/UEDPIE_0_EndlesssRunner.EndlesssRunner up for play (max tick rate 60) at 2017.09.18-18.48.32
[2017.09.18-22.48.32:651][260]LogWorld: Bringing up level for play took: 0.001037
[2017.09.18-22.48.32:675][260]PIE: Play in editor start time for /Game/UEDPIE_0_EndlesssRunner -0.381
[2017.09.18-22.48.50:009][287]LogSavePackage: Save=27.38ms
[2017.09.18-22.48.50:009][287]LogSavePackage: Moving '../../../../../../Users/Megan Nadolski/Documents/runner/EndlessRunner 4.17 - 2 4.17 - 2/Saved/EndlesssRunner8BDB047E438E334A78417D9D88675C3C.tmp' to '../../../../../../Users/Megan Nadolski/Documents/runner/EndlessRunner 4.17 - 2 4.17 - 2/Content/EndlesssRunner.umap'
[2017.09.18-22.48.50:010][287]LogSavePackage: Display: Finished SavePackage ../../../../../../Users/Megan Nadolski/Documents/runner/EndlessRunner 4.17 - 2 4.17 - 2/Content/EndlesssRunner.umap
[2017.09.18-22.48.50:099][287]LogSavePackage: Save=23.01ms
[2017.09.18-22.48.50:099][287]LogSavePackage: Moving '../../../../../../Users/Megan Nadolski/Documents/runner/EndlessRunner 4.17 - 2 4.17 - 2/Saved/EndlesssRunner_BuiltData7A49A17C47F2CFE85284909E9943A3C1.tmp' to '../../../../../../Users/Megan Nadolski/Documents/runner/EndlessRunner 4.17 - 2 4.17 - 2/Content/EndlesssRunner_BuiltData.uasset'
[2017.09.18-22.48.50:101][287]LogSavePackage: Display: Finished SavePackage ../../../../../../Users/Megan Nadolski/Documents/runner/EndlessRunner 4.17 - 2 4.17 - 2/Content/EndlesssRunner_BuiltData.uasset
[2017.09.18-22.55.10:067][347]LogSavePackage: Save=141.63ms
[2017.09.18-22.55.10:067][347]LogSavePackage: Moving '../../../../../../Users/Megan Nadolski/Documents/runner/EndlessRunner 4.17 - 2 4.17 - 2/Saved/BP_FloorTIle7ED7F76144CF761AB31F71A4AED442A8.tmp' to '../../../../../../Users/Megan Nadolski/Documents/runner/EndlessRunner 4.17 - 2 4.17 - 2/Content/ThirdPersonBP/Blueprints/BP_FloorTIle.uasset'
[2017.09.18-22.55.10:071][347]LogSavePackage: Display: Finished SavePackage ../../../../../../Users/Megan Nadolski/Documents/runner/EndlessRunner 4.17 - 2 4.17 - 2/Content/ThirdPersonBP/Blueprints/BP_FloorTIle.uasset
[2017.09.18-22.55.44:413][398]LogSavePackage: Save=129.81ms
[2017.09.18-22.55.44:413][398]LogSavePackage: Moving '../../../../../../Users/Megan Nadolski/Documents/runner/EndlessRunner 4.17 - 2 4.17 - 2/Saved/BP_FloorTIleD727DBD74D8FCBF41647498BF87EE33A.tmp' to '../../../../../../Users/Megan Nadolski/Documents/runner/EndlessRunner 4.17 - 2 4.17 - 2/Content/ThirdPersonBP/Blueprints/BP_FloorTIle.uasset'
[2017.09.18-22.55.44:415][398]LogSavePackage: Display: Finished SavePackage ../../../../../../Users/Megan Nadolski/Documents/runner/EndlessRunner 4.17 - 2 4.17 - 2/Content/ThirdPersonBP/Blueprints/BP_FloorTIle.uasset
[2017.09.18-22.57.08:351][351]BlueprintLog: New page: Compile FloorTile_RampDown
[2017.09.18-22.57.09:272][377]LogSavePackage: Save=47.28ms
[2017.09.18-22.57.09:272][377]LogSavePackage: Moving '../../../../../../Users/Megan Nadolski/Documents/runner/EndlessRunner 4.17 - 2 4.17 - 2/Saved/FloorTile_RampDown1CAD155944CE7D2B4BCBC39F3560CA6E.tmp' to '../../../../../../Users/Megan Nadolski/Documents/runner/EndlessRunner 4.17 - 2 4.17 - 2/Content/ThirdPersonBP/Blueprints/FloorTile_RampDown.uasset'
[2017.09.18-22.57.09:276][377]LogSavePackage: Display: Finished SavePackage ../../../../../../Users/Megan Nadolski/Documents/runner/EndlessRunner 4.17 - 2 4.17 - 2/Content/ThirdPersonBP/Blueprints/FloorTile_RampDown.uasset
[2017.09.18-22.57.51:346][569]BlueprintLog: New page: Compile FloorTile_RampUp
[2017.09.18-22.57.52:168][591]LogSavePackage: Save=47.15ms
[2017.09.18-22.57.52:169][591]LogSavePackage: Moving '../../../../../../Users/Megan Nadolski/Documents/runner/EndlessRunner 4.17 - 2 4.17 - 2/Saved/FloorTile_RampUp0B44F6F047C0EFDF32CAF4A92C8B2C41.tmp' to '../../../../../../Users/Megan Nadolski/Documents/runner/EndlessRunner 4.17 - 2 4.17 - 2/Content/ThirdPersonBP/Blueprints/FloorTile_RampUp.uasset'
[2017.09.18-22.57.52:172][591]LogSavePackage: Display: Finished SavePackage ../../../../../../Users/Megan Nadolski/Documents/runner/EndlessRunner 4.17 - 2 4.17 - 2/Content/ThirdPersonBP/Blueprints/FloorTile_RampUp.uasset
[2017.09.18-22.57.55:849][807]LogTemp: Repeating last play command: Selected Viewport
[2017.09.18-22.57.55:873][807]LogPlayLevel: PlayLevel: No blueprints needed recompiling
[2017.09.18-22.57.55:873][807]PIE: New page: PIE session: EndlesssRunner (Sep 18, 2017, 2:57:55 PM)
[2017.09.18-22.57.55:873][807]LogPlayLevel: Creating play world package: /Game/UEDPIE_0_EndlesssRunner
[2017.09.18-22.57.55:875][807]LogPlayLevel: PIE: StaticDuplicateObject took: (0.001749s)
[2017.09.18-22.57.55:875][807]LogAIModule: Creating AISystem for world EndlesssRunner
[2017.09.18-22.57.55:876][807]LogPlayLevel: PIE: World Init took: (0.000816s)
[2017.09.18-22.57.55:876][807]LogPlayLevel: PIE: Created PIE world by copying editor world from /Game/EndlesssRunner.EndlesssRunner to /Game/UEDPIE_0_EndlesssRunner.EndlesssRunner (0.002849s)
[2017.09.18-22.57.55:895][807]LogInit: XAudio2 using 'Speakers (Realtek High Definition Audio)' : 2 channels at 48 kHz using 32 bits per sample (channel mask 0x3)
[2017.09.18-22.57.55:939][807]LogInit: FAudioDevice initialized.
[2017.09.18-22.57.55:971][807]LogLoad: Game class is 'RunGameMode_C'
[2017.09.18-22.57.55:973][807]LogWorld: Bringing World /Game/UEDPIE_0_EndlesssRunner.EndlesssRunner up for play (max tick rate 60) at 2017.09.18-18.57.55
[2017.09.18-22.57.55:974][807]LogWorld: Bringing up level for play took: 0.001067
[2017.09.18-22.57.55:998][807]PIE: Play in editor start time for /Game/UEDPIE_0_EndlesssRunner 0.942
[2017.09.18-22.58.26:710][646]LogTemp: Repeating last play command: Selected Viewport
[2017.09.18-22.58.26:729][646]LogPlayLevel: PlayLevel: No blueprints needed recompiling
[2017.09.18-22.58.26:729][646]PIE: New page: PIE session: EndlesssRunner (Sep 18, 2017, 2:58:26 PM)
[2017.09.18-22.58.26:729][646]LogPlayLevel: Creating play world package: /Game/UEDPIE_0_EndlesssRunner
[2017.09.18-22.58.26:731][646]LogPlayLevel: PIE: StaticDuplicateObject took: (0.002104s)
[2017.09.18-22.58.26:732][646]LogAIModule: Creating AISystem for world EndlesssRunner
[2017.09.18-22.58.26:732][646]LogPlayLevel: PIE: World Init took: (0.001094s)
[2017.09.18-22.58.26:733][646]LogPlayLevel: PIE: Created PIE world by copying editor world from /Game/EndlesssRunner.EndlesssRunner to /Game/UEDPIE_0_EndlesssRunner.EndlesssRunner (0.003565s)
[2017.09.18-22.58.26:751][646]LogInit: XAudio2 using 'Speakers (Realtek High Definition Audio)' : 2 channels at 48 kHz using 32 bits per sample (channel mask 0x3)
[2017.09.18-22.58.26:795][646]LogInit: FAudioDevice initialized.
[2017.09.18-22.58.26:827][646]LogLoad: Game class is 'RunGameMode_C'
[2017.09.18-22.58.26:829][646]LogWorld: Bringing World /Game/UEDPIE_0_EndlesssRunner.EndlesssRunner up for play (max tick rate 60) at 2017.09.18-18.58.26
[2017.09.18-22.58.26:829][646]LogWorld: Bringing up level for play took: 0.001116
[2017.09.18-22.58.26:854][646]PIE: Play in editor start time for /Game/UEDPIE_0_EndlesssRunner -0.202
[2017.09.18-22.59.24:537][ 99]LogFileHelpers: Editor autosave (incl. sublevels) for '/Game/EndlesssRunner' took 0.018
[2017.09.18-22.59.24:575][ 99]OBJ SavePackage: Generating thumbnails for [1] asset(s) in package [/Game/ThirdPersonBP/Blueprints/BP_FloorTIle_FloorGap] ([1] browsable assets)...
[2017.09.18-22.59.24:597][ 99]OBJ SavePackage:     Rendered thumbnail for [Blueprint /Game/ThirdPersonBP/Blueprints/BP_FloorTIle_FloorGap.BP_FloorTIle_FloorGap]
[2017.09.18-22.59.24:597][ 99]OBJ SavePackage: Finished generating thumbnails for package [/Game/ThirdPersonBP/Blueprints/BP_FloorTIle_FloorGap]
[2017.09.18-22.59.24:654][ 99]LogSavePackage: Save=44.71ms
[2017.09.18-22.59.24:654][ 99]LogSavePackage: Moving '../../../../../../Users/Megan Nadolski/Documents/runner/EndlessRunner 4.17 - 2 4.17 - 2/Saved/BP_FloorTIle_FloorGap_Auto113A2DD074E738FE2C4D442A648EE7468.tmp' to '../../../../../../Users/Megan Nadolski/Documents/runner/EndlessRunner 4.17 - 2 4.17 - 2/Saved/Autosaves/Game/ThirdPersonBP/Blueprints/BP_FloorTIle_FloorGap_Auto1.uasset'
[2017.09.18-22.59.24:656][ 99]LogSavePackage: Display: Finished SavePackage ../../../../../../Users/Megan Nadolski/Documents/runner/EndlessRunner 4.17 - 2 4.17 - 2/Saved/Autosaves/Game/ThirdPersonBP/Blueprints/BP_FloorTIle_FloorGap_Auto1.uasset
[2017.09.18-22.59.24:656][ 99]OBJ SavePackage: Generating thumbnails for [1] asset(s) in package [/Game/ThirdPersonBP/Blueprints/BP_FloorTIle_LeftCorner] ([1] browsable assets)...
[2017.09.18-22.59.24:672][ 99]OBJ SavePackage:     Rendered thumbnail for [Blueprint /Game/ThirdPersonBP/Blueprints/BP_FloorTIle_LeftCorner.BP_FloorTIle_LeftCorner]
[2017.09.18-22.59.24:672][ 99]OBJ SavePackage: Finished generating thumbnails for package [/Game/ThirdPersonBP/Blueprints/BP_FloorTIle_LeftCorner]
[2017.09.18-22.59.24:731][ 99]LogSavePackage: Save=47.93ms
[2017.09.18-22.59.24:731][ 99]LogSavePackage: Moving '../../../../../../Users/Megan Nadolski/Documents/runner/EndlessRunner 4.17 - 2 4.17 - 2/Saved/BP_FloorTIle_LeftCorner_Auto1F49493464620862F3C20E8BD7D58F62D.tmp' to '../../../../../../Users/Megan Nadolski/Documents/runner/EndlessRunner 4.17 - 2 4.17 - 2/Saved/Autosaves/Game/ThirdPersonBP/Blueprints/BP_FloorTIle_LeftCorner_Auto1.uasset'
[2017.09.18-22.59.24:732][ 99]LogSavePackage: Display: Finished SavePackage ../../../../../../Users/Megan Nadolski/Documents/runner/EndlessRunner 4.17 - 2 4.17 - 2/Saved/Autosaves/Game/ThirdPersonBP/Blueprints/BP_FloorTIle_LeftCorner_Auto1.uasset
[2017.09.18-22.59.24:733][ 99]OBJ SavePackage: Generating thumbnails for [1] asset(s) in package [/Game/ThirdPersonBP/Blueprints/BP_FloorTIle_RightCorner] ([1] browsable assets)...
[2017.09.18-22.59.24:749][ 99]OBJ SavePackage:     Rendered thumbnail for [Blueprint /Game/ThirdPersonBP/Blueprints/BP_FloorTIle_RightCorner.BP_FloorTIle_RightCorner]
[2017.09.18-22.59.24:749][ 99]OBJ SavePackage: Finished generating thumbnails for package [/Game/ThirdPersonBP/Blueprints/BP_FloorTIle_RightCorner]
[2017.09.18-22.59.24:808][ 99]LogSavePackage: Save=46.96ms
[2017.09.18-22.59.24:808][ 99]LogSavePackage: Moving '../../../../../../Users/Megan Nadolski/Documents/runner/EndlessRunner 4.17 - 2 4.17 - 2/Saved/BP_FloorTIle_RightCorner_Auto1BEB2E45440CE95142A84CBB9BEB0206C.tmp' to '../../../../../../Users/Megan Nadolski/Documents/runner/EndlessRunner 4.17 - 2 4.17 - 2/Saved/Autosaves/Game/ThirdPersonBP/Blueprints/BP_FloorTIle_RightCorner_Auto1.uasset'
[2017.09.18-22.59.24:810][ 99]LogSavePackage: Display: Finished SavePackage ../../../../../../Users/Megan Nadolski/Documents/runner/EndlessRunner 4.17 - 2 4.17 - 2/Saved/Autosaves/Game/ThirdPersonBP/Blueprints/BP_FloorTIle_RightCorner_Auto1.uasset
[2017.09.18-22.59.24:810][ 99]LogFileHelpers: Auto-saving content packages took 0.236
[2017.09.18-23.06.18:266][776]LogFactory: FactoryCreateFile: StaticMesh with FbxFactory (0 0 ../../../../../../Users/Megan Nadolski/Downloads/Earth.fbx)
[2017.09.18-23.06.18:354][776]LogFbx: ItemName: GlobalSettings, ItemCount : 1
[2017.09.18-23.06.18:354][776]LogFbx: ItemName: Geometry, ItemCount : 1
[2017.09.18-23.06.18:354][776]LogFbx: ItemName: Model, ItemCount : 1
[2017.09.18-23.06.18:354][776]LogFbx: ItemName: Material, ItemCount : 1
[2017.09.18-23.06.18:354][776]LogFbx: ItemName: Texture, ItemCount : 1
[2017.09.18-23.06.18:354][776]LogFbx: ItemName: Video, ItemCount : 1
[2017.09.18-23.06.18:363][776]LogFbx: Loading FBX Scene from ../../../../../../Users/Megan Nadolski/Downloads/Earth.fbx
[2017.09.18-23.06.18:376][776]LogFbx: FBX Scene Loaded Succesfully
[2017.09.18-23.06.20:019][776]LogFbx: Loading FBX Scene from ../../../../../../Users/Megan Nadolski/Downloads/Earth.fbx
[2017.09.18-23.06.20:029][776]LogFbx: FBX Scene Loaded Succesfully
[2017.09.18-23.06.20:050][776]LogLinker: Can't find file '/Game/ThirdPersonBP/DLC/Earth_MATERIAL'
[2017.09.18-23.06.20:051][776]LogLinker: Can't find file '/Game/ThirdPersonBP/DLC/Earth_MATERIAL'
[2017.09.18-23.06.20:073][776]LogLinker: Can't find file '/Game/ThirdPersonBP/DLC/Earth_TEXTURE_CM'
[2017.09.18-23.06.20:073][776]LogLinker: Can't find file '/Game/ThirdPersonBP/DLC/Earth_TEXTURE_CM'
[2017.09.18-23.06.20:074][776]LogFbxMaterialImport: Warning: Unable to find Texture file C:\Users\Igor\Desktop\Earth\Earth_TEXTURE_CM.tga
[2017.09.18-23.06.20:102][776]LogMaterial: Missing cached shader map for material Earth_MATERIAL, compiling. 
[2017.09.18-23.06.20:214][776]LogFbx: Warning: Triangulating static mesh Earth
[2017.09.18-23.06.20:668][776]LogStaticMesh: Building static mesh Earth...
[2017.09.18-23.06.20:721][776]LogStaticMesh: Built static mesh [0.06s] /Game/ThirdPersonBP/DLC/Earth.Earth
[2017.09.18-23.06.20:859][776]FBXImport: Warning: No smoothing group information was found in this FBX scene.  Please make sure to enable the 'Export Smoothing Groups' option in the FBX Exporter plug-in before exporting the file.  Even for tools that don't support smoothing groups, the FBX Exporter will generate appropriate smoothing data at export-time so that correct vertex normals can be inferred while importing. 
[2017.09.18-23.06.21:181][776]LogFactory: FactoryCreateFile: StaticMesh with FbxFactory (0 0 ../../../../../../Users/Megan Nadolski/Downloads/luna-1.fbx)
[2017.09.18-23.06.21:211][776]LogFbx: Loading FBX Scene from ../../../../../../Users/Megan Nadolski/Downloads/luna-1.fbx
[2017.09.18-23.06.21:302][776]LogFbx: FBX Scene Loaded Succesfully
[2017.09.18-23.06.21:308][776]LogLinker: Can't find file '/Game/ThirdPersonBP/DLC/moon'
[2017.09.18-23.06.21:308][776]LogLinker: Can't find file '/Game/ThirdPersonBP/DLC/moon'
[2017.09.18-23.06.21:311][776]LogLinker: Can't find file '/Game/ThirdPersonBP/DLC/MoonColorMap'
[2017.09.18-23.06.21:311][776]LogLinker: Can't find file '/Game/ThirdPersonBP/DLC/MoonColorMap'
[2017.09.18-23.06.21:311][776]LogFbxMaterialImport: Warning: Unable to find Texture file C:\Users\Edgar\Downloads\MoonColorMap.png
[2017.09.18-23.06.21:311][776]LogLinker: Can't find file '/Game/ThirdPersonBP/DLC/MoonReliefMap'
[2017.09.18-23.06.21:312][776]LogLinker: Can't find file '/Game/ThirdPersonBP/DLC/MoonReliefMap'
[2017.09.18-23.06.21:312][776]LogFbxMaterialImport: Warning: Unable to find Texture file C:\Users\Edgar\Downloads\MoonReliefMap.png
[2017.09.18-23.06.21:331][776]LogMaterial: Missing cached shader map for material moon, compiling. 
[2017.09.18-23.06.21:349][776]LogFbx: Warning: Triangulating static mesh moon
[2017.09.18-23.06.34:553][776]LogStaticMesh: Building static mesh luna-1...
[2017.09.18-23.06.35:594][776]LogStaticMesh: Built static mesh [1.04s] /Game/ThirdPersonBP/DLC/luna-1.luna-1
[2017.09.18-23.06.36:160][776]LogStaticMesh: Warning: luna-1 has degenerate tangent bases which will result in incorrect shading.  MikkTSpace relies on tangent bases and may result in mesh corruption, consider disabling this option.
[2017.09.18-23.06.36:234][776]FBXImport: Warning: No smoothing group information was found in this FBX scene.  Please make sure to enable the 'Export Smoothing Groups' option in the FBX Exporter plug-in before exporting the file.  Even for tools that don't support smoothing groups, the FBX Exporter will generate appropriate smoothing data at export-time so that correct vertex normals can be inferred while importing. 
[2017.09.18-23.06.36:234][776]FBXImport: Warning: luna-1 has degenerate tangent bases which will result in incorrect shading.  MikkTSpace relies on tangent bases and may result in mesh corruption, consider disabling this option. 
[2017.09.18-23.07.43:393][610]LogEditorTransaction: Undo Edit Static Mesh
[2017.09.18-23.07.46:088][768]LogEditorTransaction: Undo Replace component used material
[2017.09.18-23.07.50:047][  5]LogEditorTransaction: Undo Replace component used material
[2017.09.18-23.07.50:058][  5]LogSpawn: Warning: UWorld::DestroyActor: World has no context! World: World_21, Actor: /Engine/Transient.World_21:PersistentLevel.DESTROYED_BP_Item_C_CHILDACTOR_467
[2017.09.18-23.07.50:058][  5]LogSpawn: Warning: UWorld::DestroyActor: World has no context! World: World_21, Actor: /Engine/Transient.World_21:PersistentLevel.DESTROYED_BP_Item_C_CHILDACTOR_468
[2017.09.18-23.07.50:059][  5]LogSpawn: Warning: UWorld::DestroyActor: World has no context! World: World_21, Actor: /Engine/Transient.World_21:PersistentLevel.DESTROYED_BP_Item_C_CHILDACTOR_469
[2017.09.18-23.07.50:059][  5]LogSpawn: Warning: UWorld::DestroyActor: World has no context! World: World_21, Actor: /Engine/Transient.World_21:PersistentLevel.DESTROYED_BP_Item_C_CHILDACTOR_470
[2017.09.18-23.07.50:060][  5]LogSpawn: Warning: UWorld::DestroyActor: World has no context! World: World_21, Actor: /Engine/Transient.World_21:PersistentLevel.DESTROYED_BP_Item_C_CHILDACTOR_471
[2017.09.18-23.07.50:060][  5]LogSpawn: Warning: UWorld::DestroyActor: World has no context! World: World_21, Actor: /Engine/Transient.World_21:PersistentLevel.DESTROYED_BP_Item_C_CHILDACTOR_472
[2017.09.18-23.07.52:751][166]LogEditorTransaction: Undo Replace component used material
[2017.09.18-23.07.52:751][166]LogSpawn: Warning: UWorld::DestroyActor: World has no context! World: World_21, Actor: /Engine/Transient.World_21:PersistentLevel.DESTROYED_BP_Item_C_CHILDACTOR_479
[2017.09.18-23.07.52:751][166]LogSpawn: Warning: UWorld::DestroyActor: World has no context! World: World_21, Actor: /Engine/Transient.World_21:PersistentLevel.DESTROYED_BP_Item_C_CHILDACTOR_480
[2017.09.18-23.07.52:752][166]LogSpawn: Warning: UWorld::DestroyActor: World has no context! World: World_21, Actor: /Engine/Transient.World_21:PersistentLevel.DESTROYED_BP_Item_C_CHILDACTOR_481
[2017.09.18-23.07.52:752][166]LogSpawn: Warning: UWorld::DestroyActor: World has no context! World: World_21, Actor: /Engine/Transient.World_21:PersistentLevel.DESTROYED_BP_Item_C_CHILDACTOR_482
[2017.09.18-23.07.52:752][166]LogSpawn: Warning: UWorld::DestroyActor: World has no context! World: World_21, Actor: /Engine/Transient.World_21:PersistentLevel.DESTROYED_BP_Item_C_CHILDACTOR_483
[2017.09.18-23.07.52:752][166]LogSpawn: Warning: UWorld::DestroyActor: World has no context! World: World_21, Actor: /Engine/Transient.World_21:PersistentLevel.DESTROYED_BP_Item_C_CHILDACTOR_484
[2017.09.18-23.07.53:669][221]LogEditorTransaction: Undo Replace component used material
[2017.09.18-23.08.17:810][611]BlueprintLog: New page: Compile BP_Item
[2017.09.18-23.08.17:826][611]LogSpawn: Warning: UWorld::DestroyActor: World has no context! World: World_22, Actor: /Engine/Transient.World_22:PersistentLevel.REINST_BP_Item_C_8
[2017.09.18-23.08.17:863][611]LogWorld: --- Actors Currently in /Engine/Transient.World_22:PersistentLevel ---
[2017.09.18-23.08.17:863][611]LogWorld:   /Engine/Transient.World_22:PersistentLevel.WorldSettings
[2017.09.18-23.08.17:863][611]LogWorld:   /Engine/Transient.World_22:PersistentLevel.Brush_22
[2017.09.18-23.08.17:863][611]LogWorld:   /Engine/Transient.World_22:PersistentLevel.DefaultPhysicsVolume_22
[2017.09.18-23.08.17:863][611]LogWorld:   /Engine/Transient.World_22:PersistentLevel.ParticleEventManager_22
[2017.09.18-23.08.17:863][611]LogWorld:   NONE
[2017.09.18-23.08.17:863][611]LogWorld:   /Engine/Transient.World_22:PersistentLevel.BP_Item_C_397
[2017.09.18-23.08.18:600][611]LogStats: FPlatformStackWalk::StackWalkAndDump -  0.737 s
[2017.09.18-23.08.18:600][611]LogOutputDevice: Error: === Handled ensure: ===
[2017.09.18-23.08.18:600][611]LogOutputDevice: Error: 
[2017.09.18-23.08.18:600][611]LogOutputDevice: Error: Ensure condition failed: false [File:D:\Build\++UE4+Release-4.17+Compile\Sync\Engine\Source\Runtime\Engine\Private\World.cpp] [Line: 1486]
[2017.09.18-23.08.18:600][611]LogOutputDevice: Error: Could not remove actor /Engine/Transient.World_22:PersistentLevel.REINST_BP_Item_C_8 from world (check level is /Engine/Transient.World_22:PersistentLevel)
[2017.09.18-23.08.18:600][611]LogOutputDevice: Error: Stack: 
[2017.09.18-23.08.18:601][611]LogOutputDevice: Error: UE4Editor-Core.dll!0x0000000069D73606
[2017.09.18-23.08.18:601][611]LogOutputDevice: Error: UE4Editor-Core.dll!0x0000000069AFC2D2
[2017.09.18-23.08.18:601][611]LogOutputDevice: Error: UE4Editor-Core.dll!0x0000000069B14746
[2017.09.18-23.08.18:601][611]LogOutputDevice: Error: UE4Editor-Engine.dll!0x000000005B9C2746
[2017.09.18-23.08.18:601][611]LogOutputDevice: Error: UE4Editor-Engine.dll!0x000000005B086D28
[2017.09.18-23.08.18:601][611]LogOutputDevice: Error: UE4Editor-Engine.dll!0x000000005B08C703
[2017.09.18-23.08.18:601][611]LogOutputDevice: Error: UE4Editor-UnrealEd.dll!0x000000005968522B
[2017.09.18-23.08.18:601][611]LogOutputDevice: Error: UE4Editor-UnrealEd.dll!0x0000000059648C0F
[2017.09.18-23.08.18:601][611]LogOutputDevice: Error: UE4Editor-Kismet.dll!0x00000000577C973F
[2017.09.18-23.08.18:601][611]LogOutputDevice: Error: UE4Editor-Kismet.dll!0x0000000057767F2C
[2017.09.18-23.08.18:601][611]LogOutputDevice: Error: UE4Editor-UnrealEd.dll!0x00000000596506FE
[2017.09.18-23.08.18:601][611]LogOutputDevice: Error: UE4Editor-Kismet.dll!0x00000000577676D2
[2017.09.18-23.08.18:601][611]LogOutputDevice: Error: UE4Editor-Kismet.dll!0x00000000577B8E51
[2017.09.18-23.08.18:601][611]LogOutputDevice: Error: UE4Editor-Kismet.dll!0x00000000577BDBB6
[2017.09.18-23.08.18:601][611]LogOutputDevice: Error: UE4Editor-Slate.dll!0x0000000068E353FF
[2017.09.18-23.08.18:601][611]LogOutputDevice: Error: UE4Editor-Slate.dll!0x0000000068F39652
[2017.09.18-23.08.18:601][611]LogOutputDevice: Error: UE4Editor-Slate.dll!0x0000000068E967B2
[2017.09.18-23.08.18:601][611]LogOutputDevice: Error: UE4Editor-Slate.dll!0x0000000068E97B69
[2017.09.18-23.08.18:601][611]LogOutputDevice: Error: UE4Editor-Slate.dll!0x0000000068F166F5
[2017.09.18-23.08.18:601][611]LogOutputDevice: Error: UE4Editor-Slate.dll!0x0000000068FCB967
[2017.09.18-23.08.18:601][611]LogOutputDevice: Error: UE4Editor-Slate.dll!0x0000000068FF74D4
[2017.09.18-23.08.18:601][611]LogOutputDevice: Error: UE4Editor-Slate.dll!0x0000000068E142BC
[2017.09.18-23.08.18:601][611]LogOutputDevice: Error: UE4Editor-Slate.dll!0x0000000068DE7145
[2017.09.18-23.08.18:601][611]LogOutputDevice: Error: UE4Editor-Slate.dll!0x0000000068E81452
[2017.09.18-23.08.18:601][611]LogOutputDevice: Error: UE4Editor-Slate.dll!0x0000000068E69C92
[2017.09.18-23.08.18:601][611]LogOutputDevice: Error: UE4Editor-Slate.dll!0x0000000068E5B68F
[2017.09.18-23.08.18:601][611]LogOutputDevice: Error: UE4Editor-Core.dll!0x0000000069D4B3C9
[2017.09.18-23.08.18:601][611]LogOutputDevice: Error: UE4Editor-Core.dll!0x0000000069D33B51
[2017.09.18-23.08.18:601][611]LogOutputDevice: Error: UE4Editor-Core.dll!0x0000000069D4D22B
[2017.09.18-23.08.18:601][611]LogOutputDevice: Error: UE4Editor-Core.dll!0x0000000069D2ECB2
[2017.09.18-23.08.18:601][611]LogOutputDevice: Error: USER32.dll!0x00000000BF57BC50
[2017.09.18-23.08.18:601][611]LogOutputDevice: Error: USER32.dll!0x00000000BF57B5CF
[2017.09.18-23.08.18:602][611]LogOutputDevice: Error: UE4Editor-Core.dll!0x0000000069D4D936
[2017.09.18-23.08.18:602][611]LogOutputDevice: Error: UE4Editor.exe!0x00000000D5804BE2
[2017.09.18-23.08.18:602][611]LogOutputDevice: Error: UE4Editor.exe!0x00000000D5813970
[2017.09.18-23.08.18:602][611]LogOutputDevice: Error: UE4Editor.exe!0x00000000D58139EA
[2017.09.18-23.08.18:602][611]LogOutputDevice: Error: UE4Editor.exe!0x00000000D58202D9
[2017.09.18-23.08.18:602][611]LogOutputDevice: Error: UE4Editor.exe!0x00000000D5821C47
[2017.09.18-23.08.18:602][611]LogOutputDevice: Error: KERNEL32.DLL!0x00000000BCC42774
[2017.09.18-23.08.18:602][611]LogOutputDevice: Error: ntdll.dll!0x00000000BF740D51
[2017.09.18-23.08.18:602][611]LogOutputDevice: Error: 
[2017.09.18-23.08.18:610][611]LogStats:                SubmitErrorReport -  0.000 s
